AstraZeneca;BCG;Formas graves de Tuberculosis;Intra Dérmica;Ricién Nacido; Dosis Unica 0.1 ml
GSK;Pentavalente;Difteria,Tétanos,Coqueluche,Hepatisi B, neumonías y meningitis por Hib;Intra Muscular;1ra dosis 2 meses, 2da dosis 4 meses, 3ra dosis 6 meses;5 Dosis 05 ml
Johnson & Johnson;Pentavalente;Difteria,Tétanos,Coqueluche,Hepatisi B, neumonías y meningitis por Hib;Intra Muscular;4ta dosis 18 a 23 meses, 5ta dosis 4 años;5 Dosis 05 ml
Johnson & Johnson;Antipolio;Poliomielitis;Intra Muscular;1ra dosis 2 meses;1 Dosis 0.5 ml
Johnson & Johnson;Antipolio;Poliomielitis;Intra Muscular;2da. dosis 4 meses, 3ra dosis 6 meses, 4ta dosis 18 a 23 meses, 5ta dosis 4 años;4 Dosis 2 Gotas
AstraZeneca;Anti neumocócica; Neumonías y meningitis;Intra muscular; 1ra dosis 2 meses,2da dosis 4 meses,3ra dosis 6 meses; 3 Dosis 0.5ml
AstraZeneca;Anti rotavirus; Diarreas severas por rotavirus;Oral; 1ra dosis 2 meses hasta los 3 meses,2da dosis 4 meses hasa los 7 meses; 2 Dosis 1.5ml
GSK;Anti Influenza Estacional Pediátrica; Influenza estacional; Intra muscular; Niños de 6 a 11 meses: 1ra dosis al contacto, 2da. dosis al mes de la 1era.; 2 Dosis 1.5 ml
GSK;Anti Influenza Estacional Pediátrica; Influenza estacional; Intra muscular; Niños de 12 a 23 meses 1 sola dosis; 1 Dosis 0.25 ml
Merck;SRP;Sarampión,Rubéola,Parotiditis;Subcutánea;De 12 a 23 Meses;Dosis Única 0.5 ml
Pfizer;Anti Amarílica;Fiebre Amarílla;Subcutánea;De 12 a 23 Meses;Dosis Única 0.5 ml
Johnson & Johnson;Virus del Papiloma Humano (VHP);Cáncer cérvico uterino;Intra Muscular;10 años 1ra dosis al contacto, 2da dosis a los 6 meses;2 Dosis 0.5 ml
Johnson & Johnson;dt Adulto; Difteria,Tétanos neonatal y tétanos de adulto (Hombres y Mujeres); Intra muscular; De 7 a 9 años 1ra dosis al contacto, 2da dosis a los dos meses; 2 Dosis 0.5 ml
Pfizer;dt Adulto; Difteria,Tétanos neonatal y tétanos de adulto (Hombres y Mujeres); Intra muscular; De 10 a 49 años 1ra dosis al contacto, 2da dosis al mes, 3ra dosis a los 6 meses; 3 Dosis 0.5 ml
Pfizer;Anti Influenza Estacional Adulto; Influenza Estacional; Intra Muscular; Embarazadas, Personal de Salud, Mayores a 60 años, Enfermos Crónicos; 1 dosis 0.5ml cada año